c487431b87ce26e8b4590a48baa7d044be540793d7b11ca620ab7df93919b90b	sof-tplg-v2.2.3/./sof-acp.tplg
602c02ad90718432d73c45ef4749832a04297f85c91ddf4745dc7bc81da2fbc3	sof-tplg-v2.2.3/./sof-adl-cs35l41.tplg
d2929b52c06b4727c0b39b6b2a90022d1b7ebcedb8294412526f6cc016a97fc6	sof-tplg-v2.2.3/./sof-adl-es8336-ssp1-hdmi-ssp02.tplg
da01bc5c2448bc1f4fd65b11bea52f0acf7597112c5a0643bcbf881b84bf5d7f	sof-tplg-v2.2.3/./sof-adl-es8336-ssp1.tplg
4206d4cc53789b533ff26ab7d0466dda9cce05ae8779fde6195db28c162f9210	sof-tplg-v2.2.3/./sof-adl-max98357a-rt5682-2way.tplg
1c4b9e04aafa7f9fc6961478ed34d35d84ad68c4c51dd59dc274781ab980a21d	sof-tplg-v2.2.3/./sof-adl-max98357a-rt5682-4ch.tplg
054574cfb883058e692258fcba5be74ee08d974a71e5e4c9dea3f9bacb8c40ac	sof-tplg-v2.2.3/./sof-adl-max98357a-rt5682-rtnr.tplg
3c63149b35e2dde023cd0eefd31c4d7d4ce818816a1ab29a581aef882782b21c	sof-tplg-v2.2.3/./sof-adl-max98357a-rt5682-waves-2way.tplg
6b7a5732b70689e21c97f87777d6612134adbc1e65192303072d7dd4134fe836	sof-tplg-v2.2.3/./sof-adl-max98357a-rt5682-waves.tplg
380510a03d71f01c4db0229e2303ec44f77cd797436ff01427f1e419b296c3e3	sof-tplg-v2.2.3/./sof-adl-max98357a-rt5682.tplg
21fb412e651b7f50aa90244b3a9b2dd5134eb400c8673e0640d780a832ee9779	sof-tplg-v2.2.3/./sof-adl-max98360a-nau8825.tplg
bbab86d5429e779d53ada965040141fe2deef8ded6ce55665c786904b913027a	sof-tplg-v2.2.3/./sof-adl-max98360a-rt5682-2way.tplg
fa86f31697b48d4be1869aebc4ea8e44f73839ce55633e11399cbe9e4e9aae3e	sof-tplg-v2.2.3/./sof-adl-max98360a-rt5682-4ch.tplg
4d8b659c89760e7537a24a6006567eaf1b5ed4154c408fa14bd374047e7b74eb	sof-tplg-v2.2.3/./sof-adl-max98360a-rt5682-rtnr.tplg
65c9c9bf6c533a2f1e45ed431525c71f7d0194a4cfba341769b6a76276b8c7ae	sof-tplg-v2.2.3/./sof-adl-max98360a-rt5682-waves.tplg
52fab042fb589cecb009be56c3deda85d6ec2291d49e4b2bd95854b54b88be80	sof-tplg-v2.2.3/./sof-adl-max98360a-rt5682.tplg
0028100b4b2794d364fd20dc571221e2438ca1412b55b02f7ebb7c76ba2e1c3c	sof-tplg-v2.2.3/./sof-adl-max98373-nau8825-dts.tplg
4beb29400d9beed0c80bcc11b3f4e82aad70a54d6e851638c81eb087a10d4de5	sof-tplg-v2.2.3/./sof-adl-max98373-nau8825.tplg
27370988d4a7fc24c5e6e109a623924350e9a2beab83c9fd6786186155239301	sof-tplg-v2.2.3/./sof-adl-max98390-rt5682-google-aec.tplg
e479bcb125c734426a0e5357b1daf7ff46656598b410aca75e4ecd5f3cbc0cfb	sof-tplg-v2.2.3/./sof-adl-max98390-rt5682-rtnr.tplg
76ce8281301f63b35844ae029fced78a5285d3de52c6a7fde90d9096d2c9a822	sof-tplg-v2.2.3/./sof-adl-max98390-rt5682.tplg
e0ae0bc14fba3f664456ee3fafd9e7f9d411ae45303ffe60e1de47d63d9c3b9e	sof-tplg-v2.2.3/./sof-adl-max98390-ssp2-rt5682-ssp0.tplg
f93676f49601c409819a38795183c14b633f96caf57446357d2f648a52258142	sof-tplg-v2.2.3/./sof-adl-nau8825.tplg
7972f5c742c38a13af14f91a9ffda89eefc6cd505da91296643b83f98c6eac62	sof-tplg-v2.2.3/./sof-adl-nocodec-ci.tplg
6da98f9133266b2481c7cfe26cd4b80b0834b9de60e45a8b131c137f065c1231	sof-tplg-v2.2.3/./sof-adl-nocodec.tplg
0e637376aedfd855dd7b162426023c8db54f2bf5c4a530a7b3c0ac39333f5b0c	sof-tplg-v2.2.3/./sof-adl-rt1015-nau8825.tplg
84a82c957e58546c17ca583090507238863f95525861d2f3574801c048e8fe9c	sof-tplg-v2.2.3/./sof-adl-rt1019-nau8825.tplg
b0c08e8f0ef9067320b2f4251d110c57dfa28498827639b8250ec056d390675e	sof-tplg-v2.2.3/./sof-adl-rt1019-rt5682.tplg
5b174dacc47ff1d2eaf9bcc69c129f402cc547c002ed5b278e2cebe3bdaf8ec8	sof-tplg-v2.2.3/./sof-adl-rt1316-l12-rt714-l0.tplg
cfe81f6a86758f885efc5cbd7969095152010f23947c0acb2f58d99500c6b904	sof-tplg-v2.2.3/./sof-adl-rt1316-l2-mono-rt714-l0.tplg
368e798b0c45dbeffd5e3897ccac75bd23718d568607f79533744bbb1ad5bd62	sof-tplg-v2.2.3/./sof-adl-rt1316-l2-mono-rt714-l3.tplg
457886fdcdcaa5bad3a7b4868a3e76d4c98c0c1d02f59a1718a2edc9ac789afe	sof-tplg-v2.2.3/./sof-adl-rt5682.tplg
ea75ad965366eecc19332101c667c04bbea0eecb6c129a11424c65608b8581be	sof-tplg-v2.2.3/./sof-adl-rt711-4ch.tplg
7b39ecccdf96ccaddafbbbb3c9ba2b5b0e1dda024c426230ecced76c8f8da517	sof-tplg-v2.2.3/./sof-adl-rt711-l0-rt1308-l12-rt715-l3.tplg
7b39ecccdf96ccaddafbbbb3c9ba2b5b0e1dda024c426230ecced76c8f8da517	sof-tplg-v2.2.3/./sof-adl-rt711-l0-rt1316-l12-rt714-l3.tplg
38bc5ec19726ba05ec3944e0b9b0909cdbe507d7d54d7617508e31195909b678	sof-tplg-v2.2.3/./sof-adl-rt711-l0-rt1316-l13-rt714-l2.tplg
54031fc9ba1eebe1e444a25a3024797b8ed3ed9d781005e7d31e132e12dc03fd	sof-tplg-v2.2.3/./sof-adl-rt711-l0-rt1316-l3-2ch.tplg
920976d05b8db68132b1fe0c35847c1196bf8a15b8891ef3153301bb916947b1	sof-tplg-v2.2.3/./sof-adl-rt711-l2-rt1316-l01-rt714-l3.tplg
7e54c77dd2f4ddd1553210866f2373632d35f7000f60f77df13850fb10d527c9	sof-tplg-v2.2.3/./sof-adl-rt711-l2-rt1316-l01.tplg
5ed3c404df331a182ecd851d2e0a4307c6a67f32e31156c04433372032bc4cbd	sof-tplg-v2.2.3/./sof-adl-rt711.tplg
36c947d28bef0cae5b42482fdaa105450736a196c8d3e933dda8e44d7b926eb1	sof-tplg-v2.2.3/./sof-adl-sdw-max98373-rt5682.tplg
7e313f5e692494dc9bff62de18793736cea4ba45badca9716426f695b853093f	sof-tplg-v2.2.3/./sof-apl-da7219.tplg
5f72fac1b052689134a9f10c6a423cd57466551868b35e8862899a1e06f47b31	sof-tplg-v2.2.3/./sof-apl-demux-pcm512x.tplg
7566fafd85eacc1def6985094cfcb6cc4e7673c718ce0d823fee74d95d676654	sof-tplg-v2.2.3/./sof-apl-es8336-dmic2ch-ssp0.tplg
414790373be1177b81240581fcf8fd7dca5c08dc291e5259cd743cbc89eb777f	sof-tplg-v2.2.3/./sof-apl-es8336-dmic2ch-ssp1.tplg
7df26cfbae98a630b1c1ce8727fa0bef32dd0a270caa9c1f64ca53cfbe64a4d0	sof-tplg-v2.2.3/./sof-apl-es8336-dmic2ch-ssp2.tplg
1b9db55e4a0b2c76cfb1d7749ae107931dbb37741add5a1b6a4b722e66838ab3	sof-tplg-v2.2.3/./sof-apl-es8336-dmic2ch-ssp5.tplg
055a30fce1abf4b1dc5841867eeaef9c99f706657da3bec1417e9622c126a60c	sof-tplg-v2.2.3/./sof-apl-es8336-dmic4ch-ssp0.tplg
11e22894f0a6895e13e1c6673f912b54d6bec96133a76428829d7ec12248d60e	sof-tplg-v2.2.3/./sof-apl-es8336-dmic4ch-ssp1.tplg
cc95a3c44f458c2c25e2f4f0451971edb2fc5812074104b4d770efe25b94d386	sof-tplg-v2.2.3/./sof-apl-es8336-dmic4ch-ssp2.tplg
8cd1cdf68dd78a21bf207ef173868197eb69dad9ba1adbe46a8505072a9e52b7	sof-tplg-v2.2.3/./sof-apl-es8336-dmic4ch-ssp5.tplg
2d4e12f69c3d347994460a570836bbeeb926c2c923b9e5e71c339d6181fc8314	sof-tplg-v2.2.3/./sof-apl-es8336-ssp0.tplg
da01bc5c2448bc1f4fd65b11bea52f0acf7597112c5a0643bcbf881b84bf5d7f	sof-tplg-v2.2.3/./sof-apl-es8336-ssp1.tplg
ce801a41f5b86ee4066b7cc0be67f00e771fc80a74015221342c124e89e0edab	sof-tplg-v2.2.3/./sof-apl-es8336-ssp2.tplg
cd5a77c050bf0de12df449d2779d080bc37d0d8cc792219175a4dac7ada97023	sof-tplg-v2.2.3/./sof-apl-es8336-ssp5.tplg
ce801a41f5b86ee4066b7cc0be67f00e771fc80a74015221342c124e89e0edab	sof-tplg-v2.2.3/./sof-apl-es8336.tplg
6c7760c8aa7749ef941df5bd501cb0783f3a8b449089c12cedbd19221757d98c	sof-tplg-v2.2.3/./sof-apl-keyword-detect.tplg
03c96e442b5df51b4c77ab643697e7db0f9346ed3cf5308d70535bc6eede4f6e	sof-tplg-v2.2.3/./sof-apl-nocodec-ci.tplg
9868579145318e4c0bcad2538d04b532a1c8a85f5f5c8826088ee72a05130e01	sof-tplg-v2.2.3/./sof-apl-nocodec.tplg
59f42fb12b8efe0a5d772bb1ad1d4bc1ac05688d2b896c10e58327b9db95de34	sof-tplg-v2.2.3/./sof-apl-pcm512x-master-44100.tplg
114558d0a3d496269c968a761ad8ca60b13d22cdc3470d881af37fbf8570458c	sof-tplg-v2.2.3/./sof-apl-pcm512x-master.tplg
5060f153ec205ed02cb94ba93aad1efa6dfdfb71a6e99a272f20d532801f06f0	sof-tplg-v2.2.3/./sof-apl-pcm512x.tplg
54dfaf665338706cc24d887e6b89360dc373bed9154e3260c0acd54097e82ebf	sof-tplg-v2.2.3/./sof-apl-rt298.tplg
f63f4981c1e3c56d1e4f219fb91dd05aaf5cb1c0b31eae0891087db551d2d6cb	sof-tplg-v2.2.3/./sof-apl-tdf8532.tplg
f1192479f7c41d1b556575dda5b1537bacc7c795622731efe2c3ddb88d26346b	sof-tplg-v2.2.3/./sof-apl-wm8804.tplg
000ea4d2547b9fb7ee2acca3da108f1457d2ae2223b5360165f5ee67bfadf88a	sof-tplg-v2.2.3/./sof-bdw-nocodec.tplg
e0691d76b43d8566e8015fdb41974e7888413c0af381818f51a9a02fe59c798d	sof-tplg-v2.2.3/./sof-bdw-rt286.tplg
e0691d76b43d8566e8015fdb41974e7888413c0af381818f51a9a02fe59c798d	sof-tplg-v2.2.3/./sof-bdw-rt5640.tplg
e0691d76b43d8566e8015fdb41974e7888413c0af381818f51a9a02fe59c798d	sof-tplg-v2.2.3/./sof-bdw-rt5677.tplg
d899962efeee83693363f2912546520a4519ff8c156c319bec856ffe36e1664a	sof-tplg-v2.2.3/./sof-byt-cx2072x-ssp0.tplg
2cb09584e82233821eb33da421e9cb969b4a9e8d3488b6dd3684bfda16684002	sof-tplg-v2.2.3/./sof-byt-cx2072x.tplg
d899962efeee83693363f2912546520a4519ff8c156c319bec856ffe36e1664a	sof-tplg-v2.2.3/./sof-byt-da7213-ssp0.tplg
2cb09584e82233821eb33da421e9cb969b4a9e8d3488b6dd3684bfda16684002	sof-tplg-v2.2.3/./sof-byt-da7213.tplg
d899962efeee83693363f2912546520a4519ff8c156c319bec856ffe36e1664a	sof-tplg-v2.2.3/./sof-byt-es8316-ssp0.tplg
2cb09584e82233821eb33da421e9cb969b4a9e8d3488b6dd3684bfda16684002	sof-tplg-v2.2.3/./sof-byt-es8316.tplg
81a86d04e9d05025ee59fabc61ed21460c1ba703818fcd26427ed7f037f0f442	sof-tplg-v2.2.3/./sof-byt-max98090.tplg
811f9fd5c1f48ffe2ddf1436da27eacc22a4a26e615cf2d1a1cdb068862fc5de	sof-tplg-v2.2.3/./sof-byt-nocodec.tplg
d899962efeee83693363f2912546520a4519ff8c156c319bec856ffe36e1664a	sof-tplg-v2.2.3/./sof-byt-rt5640-ssp0.tplg
2cb09584e82233821eb33da421e9cb969b4a9e8d3488b6dd3684bfda16684002	sof-tplg-v2.2.3/./sof-byt-rt5640.tplg
d899962efeee83693363f2912546520a4519ff8c156c319bec856ffe36e1664a	sof-tplg-v2.2.3/./sof-byt-rt5645-ssp0.tplg
2cb09584e82233821eb33da421e9cb969b4a9e8d3488b6dd3684bfda16684002	sof-tplg-v2.2.3/./sof-byt-rt5645.tplg
d899962efeee83693363f2912546520a4519ff8c156c319bec856ffe36e1664a	sof-tplg-v2.2.3/./sof-byt-rt5651-ssp0.tplg
2cb09584e82233821eb33da421e9cb969b4a9e8d3488b6dd3684bfda16684002	sof-tplg-v2.2.3/./sof-byt-rt5651.tplg
d899962efeee83693363f2912546520a4519ff8c156c319bec856ffe36e1664a	sof-tplg-v2.2.3/./sof-byt-rt5670-ssp0.tplg
2cb09584e82233821eb33da421e9cb969b4a9e8d3488b6dd3684bfda16684002	sof-tplg-v2.2.3/./sof-byt-rt5670.tplg
d899962efeee83693363f2912546520a4519ff8c156c319bec856ffe36e1664a	sof-tplg-v2.2.3/./sof-byt-rt5682-ssp0.tplg
2cb09584e82233821eb33da421e9cb969b4a9e8d3488b6dd3684bfda16684002	sof-tplg-v2.2.3/./sof-byt-rt5682.tplg
d899962efeee83693363f2912546520a4519ff8c156c319bec856ffe36e1664a	sof-tplg-v2.2.3/./sof-byt-wm5102-ssp0.tplg
2cb09584e82233821eb33da421e9cb969b4a9e8d3488b6dd3684bfda16684002	sof-tplg-v2.2.3/./sof-cht-cx2072x.tplg
2cb09584e82233821eb33da421e9cb969b4a9e8d3488b6dd3684bfda16684002	sof-tplg-v2.2.3/./sof-cht-da7213.tplg
2cb09584e82233821eb33da421e9cb969b4a9e8d3488b6dd3684bfda16684002	sof-tplg-v2.2.3/./sof-cht-es8316.tplg
81a86d04e9d05025ee59fabc61ed21460c1ba703818fcd26427ed7f037f0f442	sof-tplg-v2.2.3/./sof-cht-max98090.tplg
2cb09584e82233821eb33da421e9cb969b4a9e8d3488b6dd3684bfda16684002	sof-tplg-v2.2.3/./sof-cht-nau8824.tplg
811f9fd5c1f48ffe2ddf1436da27eacc22a4a26e615cf2d1a1cdb068862fc5de	sof-tplg-v2.2.3/./sof-cht-nocodec.tplg
2cb09584e82233821eb33da421e9cb969b4a9e8d3488b6dd3684bfda16684002	sof-tplg-v2.2.3/./sof-cht-rt5640.tplg
2cb09584e82233821eb33da421e9cb969b4a9e8d3488b6dd3684bfda16684002	sof-tplg-v2.2.3/./sof-cht-rt5645.tplg
2cb09584e82233821eb33da421e9cb969b4a9e8d3488b6dd3684bfda16684002	sof-tplg-v2.2.3/./sof-cht-rt5651.tplg
2cb09584e82233821eb33da421e9cb969b4a9e8d3488b6dd3684bfda16684002	sof-tplg-v2.2.3/./sof-cht-rt5670.tplg
2cb09584e82233821eb33da421e9cb969b4a9e8d3488b6dd3684bfda16684002	sof-tplg-v2.2.3/./sof-cht-rt5682.tplg
509e5a61a5370d3e7f6c7dbe296f8d74507fa6d7497648e2dc50b5944aef5bc7	sof-tplg-v2.2.3/./sof-cml-da7219-max98357a.tplg
098a42df78b2255bdf6dee56e2c9e98b1c5d23ceb0b69b3b9bf6961626e0b050	sof-tplg-v2.2.3/./sof-cml-da7219-max98390.tplg
ec14765454fa688e25fc99f62ddb2428b71793f4184bf58f208fd13dd0345934	sof-tplg-v2.2.3/./sof-cml-demux-rt5682-max98357a.tplg
62c81913edd4416fbf6479f3afab17fb160140a897d7009237a1bee58a5288e5	sof-tplg-v2.2.3/./sof-cml-demux-rt5682.tplg
170729dff3b58c89929ce9fb7adfb3e6893458b4cf84ec3744e88e605deb8261	sof-tplg-v2.2.3/./sof-cml-es8336-dmic2ch-ssp0.tplg
94d370b0aec8454a3a88c53a643919a80255e4f056c5886702364fd41898e949	sof-tplg-v2.2.3/./sof-cml-es8336-dmic2ch-ssp1.tplg
5b4414ea0ebd1efaacf0d085884f315bec534c441a20b25720180813f7f2e549	sof-tplg-v2.2.3/./sof-cml-es8336-dmic2ch-ssp2.tplg
31d9d03eab9366bd747b2239ebdf0ec30b648718608a9a41d44a1fb450470e1e	sof-tplg-v2.2.3/./sof-cml-es8336-dmic4ch-ssp0.tplg
dd9d7a43f25a089f765f9ef32748d0196ae1ec5453712054825d0c2ec059097e	sof-tplg-v2.2.3/./sof-cml-es8336-dmic4ch-ssp1.tplg
744d0ea74a1c85c66c1ebbccff4b5b02d9f0dba9c34cda40f91ba8880d9dc160	sof-tplg-v2.2.3/./sof-cml-es8336-dmic4ch-ssp2.tplg
7ff4dc4d0ea834b53db5dfe4e0d8cd40bf5d48b3034783b9b90043ca6a124151	sof-tplg-v2.2.3/./sof-cml-es8336-ssp0.tplg
654d5cd6fd1adbd618082842a6dfe3d6843631f17dc0608faad4414942c6704f	sof-tplg-v2.2.3/./sof-cml-es8336-ssp1.tplg
b78e1e24703462d6069417b1c0f05b9e591088d426462d82cf1b6a50253839a9	sof-tplg-v2.2.3/./sof-cml-es8336-ssp2.tplg
1a63fa3189f134b16f204ebdececef82bc2003b4953218efd8ae8282fcb538b5	sof-tplg-v2.2.3/./sof-cml-nocodec.tplg
b7311ca571749929a5a1b86f2feb44d6295c1ace81900b8f8627e4357c667e9a	sof-tplg-v2.2.3/./sof-cml-rt1011-rt5682.tplg
9af62b76e9e0af752ba972acc8d1473e08caa66cdce444ab149fbb0127f5586d	sof-tplg-v2.2.3/./sof-cml-rt5682-kwd.tplg
94684dcd0a6f2d851d982710e9c1d011d8cf2ac4ae51dd18d2724a91cd1b130f	sof-tplg-v2.2.3/./sof-cml-rt5682-max98357a.tplg
a4c5ae2c4c15926f2871fc5d6858385a9c5e8df0a2f526e4466818f7944143fb	sof-tplg-v2.2.3/./sof-cml-rt5682.tplg
d1d0b4f777f43352dc28145737b6f43fec1e59e363086509021f22cb3dc3a3e4	sof-tplg-v2.2.3/./sof-cml-rt700-2ch.tplg
2033d65603d20c816ec9936aa34e1ba30bbb1ad8fdac599bf9b3e2045fc09539	sof-tplg-v2.2.3/./sof-cml-rt700-4ch.tplg
2033d65603d20c816ec9936aa34e1ba30bbb1ad8fdac599bf9b3e2045fc09539	sof-tplg-v2.2.3/./sof-cml-rt700.tplg
81811e4bd8630dacc73a6da8201fd95c48800be0a1a1aff0d9d8d90ab3c38115	sof-tplg-v2.2.3/./sof-cml-rt711-rt1308-mono-rt715.tplg
7b39ecccdf96ccaddafbbbb3c9ba2b5b0e1dda024c426230ecced76c8f8da517	sof-tplg-v2.2.3/./sof-cml-rt711-rt1308-rt715.tplg
1a63fa3189f134b16f204ebdececef82bc2003b4953218efd8ae8282fcb538b5	sof-tplg-v2.2.3/./sof-cnl-nocodec.tplg
a23fd3e0215a662eeddf12dfa226f76698f1c38484ab2c96f215791339304c3a	sof-tplg-v2.2.3/./sof-cnl-rt274.tplg
ceeca927060f8f86b0b72fc30b7fa48b21a3082816c69fd7452bd2166108596c	sof-tplg-v2.2.3/./sof-ehl-nocodec.tplg
945cbfeddc549be16fe81d73c95f16fff7e5379b36ae27f19533c7cbd8d86c10	sof-tplg-v2.2.3/./sof-ehl-rt5660-nohdmi.tplg
f28e898c519ba40226462f3504b3516278e36d4b4d31f6acfe54a57a8d51d1d7	sof-tplg-v2.2.3/./sof-ehl-rt5660.tplg
a352e49dd46d1cd1a95a8f0f67dd066fc68dddee82a31cc3022676c644502d77	sof-tplg-v2.2.3/./sof-glk-cs42l42.tplg
98ad30bce076b5c440db242f67b3d63a736c8c2ef93ede5117bb9130f75c075e	sof-tplg-v2.2.3/./sof-glk-da7219-kwd.tplg
249e79fa194101da936f853cd6c7aaddbd1a03ab512d372ba500ee07ca2e5b46	sof-tplg-v2.2.3/./sof-glk-da7219.tplg
7566fafd85eacc1def6985094cfcb6cc4e7673c718ce0d823fee74d95d676654	sof-tplg-v2.2.3/./sof-glk-es8336-dmic2ch-ssp0.tplg
414790373be1177b81240581fcf8fd7dca5c08dc291e5259cd743cbc89eb777f	sof-tplg-v2.2.3/./sof-glk-es8336-dmic2ch-ssp1.tplg
7df26cfbae98a630b1c1ce8727fa0bef32dd0a270caa9c1f64ca53cfbe64a4d0	sof-tplg-v2.2.3/./sof-glk-es8336-dmic2ch-ssp2.tplg
1b9db55e4a0b2c76cfb1d7749ae107931dbb37741add5a1b6a4b722e66838ab3	sof-tplg-v2.2.3/./sof-glk-es8336-dmic2ch-ssp5.tplg
055a30fce1abf4b1dc5841867eeaef9c99f706657da3bec1417e9622c126a60c	sof-tplg-v2.2.3/./sof-glk-es8336-dmic4ch-ssp0.tplg
11e22894f0a6895e13e1c6673f912b54d6bec96133a76428829d7ec12248d60e	sof-tplg-v2.2.3/./sof-glk-es8336-dmic4ch-ssp1.tplg
cc95a3c44f458c2c25e2f4f0451971edb2fc5812074104b4d770efe25b94d386	sof-tplg-v2.2.3/./sof-glk-es8336-dmic4ch-ssp2.tplg
8cd1cdf68dd78a21bf207ef173868197eb69dad9ba1adbe46a8505072a9e52b7	sof-tplg-v2.2.3/./sof-glk-es8336-dmic4ch-ssp5.tplg
2d4e12f69c3d347994460a570836bbeeb926c2c923b9e5e71c339d6181fc8314	sof-tplg-v2.2.3/./sof-glk-es8336-ssp0.tplg
da01bc5c2448bc1f4fd65b11bea52f0acf7597112c5a0643bcbf881b84bf5d7f	sof-tplg-v2.2.3/./sof-glk-es8336-ssp1.tplg
ce801a41f5b86ee4066b7cc0be67f00e771fc80a74015221342c124e89e0edab	sof-tplg-v2.2.3/./sof-glk-es8336-ssp2.tplg
cd5a77c050bf0de12df449d2779d080bc37d0d8cc792219175a4dac7ada97023	sof-tplg-v2.2.3/./sof-glk-es8336-ssp5.tplg
ce801a41f5b86ee4066b7cc0be67f00e771fc80a74015221342c124e89e0edab	sof-tplg-v2.2.3/./sof-glk-es8336.tplg
9868579145318e4c0bcad2538d04b532a1c8a85f5f5c8826088ee72a05130e01	sof-tplg-v2.2.3/./sof-glk-nocodec.tplg
8d561a2a225e65d8cbe110709e12ef91d1ae2a8be3b24e7c373eb0d1745f1aca	sof-tplg-v2.2.3/./sof-glk-rt5682.tplg
bfa585a81d2e0324ee5b00b8e97fcbff9d78cba71fefc2aa685c5b446905288e	sof-tplg-v2.2.3/./sof-hda-generic-1ch-pdm1.tplg
7896ab52853e64d063f5e897011d200c2944732d75a96787667454fe2f443c53	sof-tplg-v2.2.3/./sof-hda-generic-1ch.tplg
729f789d59fe602ce240dbcaf7469c973d81670629cb70ccece9c0230b0fb232	sof-tplg-v2.2.3/./sof-hda-generic-2ch-kwd.tplg
bfa585a81d2e0324ee5b00b8e97fcbff9d78cba71fefc2aa685c5b446905288e	sof-tplg-v2.2.3/./sof-hda-generic-2ch-pdm1.tplg
7896ab52853e64d063f5e897011d200c2944732d75a96787667454fe2f443c53	sof-tplg-v2.2.3/./sof-hda-generic-2ch.tplg
7b1b185b35f1034ca1957f41e75c184f79ea1cae7b38bcef995acf7481145d20	sof-tplg-v2.2.3/./sof-hda-generic-3ch.tplg
7bd0f29526aed92e486b52e16e28904a3254f5d2151360d330873f1c0a2fb2ce	sof-tplg-v2.2.3/./sof-hda-generic-4ch-kwd.tplg
7b1b185b35f1034ca1957f41e75c184f79ea1cae7b38bcef995acf7481145d20	sof-tplg-v2.2.3/./sof-hda-generic-4ch.tplg
2312fabb5dd6de546ed4172117bc96517fdfc726112a165e069d9a2d117b126b	sof-tplg-v2.2.3/./sof-hda-generic-idisp-2ch.tplg
0e3e1f3c7c10c4ba9b4c24141fc927a806c34494ece0e8ad5dcfa36df8c0f4e2	sof-tplg-v2.2.3/./sof-hda-generic-idisp-4ch.tplg
e7e50f7138ac044bc3f22bc92cdaf855ef1f888ff7962a6fe901dfe0b1a045ea	sof-tplg-v2.2.3/./sof-hda-generic-idisp.tplg
db62fb43dee542a57cf20c15df5724fc7c446e320924db3bb4f06ab1c688f00f	sof-tplg-v2.2.3/./sof-hda-generic.tplg
a2dd18cff988101e82851d731ac909d59228a3e512148022da4c01c3ebe477bf	sof-tplg-v2.2.3/./sof-icl-dmic-4ch.tplg
7566fafd85eacc1def6985094cfcb6cc4e7673c718ce0d823fee74d95d676654	sof-tplg-v2.2.3/./sof-icl-es8336-dmic2ch-ssp0.tplg
414790373be1177b81240581fcf8fd7dca5c08dc291e5259cd743cbc89eb777f	sof-tplg-v2.2.3/./sof-icl-es8336-dmic2ch-ssp1.tplg
7df26cfbae98a630b1c1ce8727fa0bef32dd0a270caa9c1f64ca53cfbe64a4d0	sof-tplg-v2.2.3/./sof-icl-es8336-dmic2ch-ssp2.tplg
055a30fce1abf4b1dc5841867eeaef9c99f706657da3bec1417e9622c126a60c	sof-tplg-v2.2.3/./sof-icl-es8336-dmic4ch-ssp0.tplg
11e22894f0a6895e13e1c6673f912b54d6bec96133a76428829d7ec12248d60e	sof-tplg-v2.2.3/./sof-icl-es8336-dmic4ch-ssp1.tplg
cc95a3c44f458c2c25e2f4f0451971edb2fc5812074104b4d770efe25b94d386	sof-tplg-v2.2.3/./sof-icl-es8336-dmic4ch-ssp2.tplg
2d4e12f69c3d347994460a570836bbeeb926c2c923b9e5e71c339d6181fc8314	sof-tplg-v2.2.3/./sof-icl-es8336-ssp0.tplg
da01bc5c2448bc1f4fd65b11bea52f0acf7597112c5a0643bcbf881b84bf5d7f	sof-tplg-v2.2.3/./sof-icl-es8336-ssp1.tplg
ce801a41f5b86ee4066b7cc0be67f00e771fc80a74015221342c124e89e0edab	sof-tplg-v2.2.3/./sof-icl-es8336-ssp2.tplg
ceeca927060f8f86b0b72fc30b7fa48b21a3082816c69fd7452bd2166108596c	sof-tplg-v2.2.3/./sof-icl-nocodec.tplg
8ab991af89e71a02abeccefc5595876d63b1867f1ea43541029769a3de654c46	sof-tplg-v2.2.3/./sof-icl-rt5682-kwd.tplg
5461588c5eb44a4ab49b92cc5736301aa98bc98a4f925f79cea19b424967d5e2	sof-tplg-v2.2.3/./sof-icl-rt5682.tplg
8e9e9705458b8cad26c1e977884948bc2f07192d71ca39c687621fb1accfe36b	sof-tplg-v2.2.3/./sof-icl-rt700-2ch.tplg
90a4a51d8592996a000cb3b028b6b2f616d17a50bfc701dee45b7a1967189201	sof-tplg-v2.2.3/./sof-icl-rt700-4ch.tplg
90a4a51d8592996a000cb3b028b6b2f616d17a50bfc701dee45b7a1967189201	sof-tplg-v2.2.3/./sof-icl-rt700.tplg
7b39ecccdf96ccaddafbbbb3c9ba2b5b0e1dda024c426230ecced76c8f8da517	sof-tplg-v2.2.3/./sof-icl-rt711-rt1308-rt715.tplg
eda30d5d8fe8df48d8d759accf0d35252392fba0438cbf701e2dbe425e8d8dbe	sof-tplg-v2.2.3/./sof-imx8-compr-wm8960-mixer.tplg
e2cd79e7d6e03c63bb83c41b5d1531f425b0656c8871c01cc860a0a9abad9655	sof-tplg-v2.2.3/./sof-imx8-cs42888-mixer.tplg
30d59b61f064f0ee436334cb68fd2af59723f50802c447f77b78dabab207f6c3	sof-tplg-v2.2.3/./sof-imx8-cs42888.tplg
9adb12cbd313008cd7646299fbc3dbd799f9cac7ad4ff5a3790a74d92157fb6e	sof-tplg-v2.2.3/./sof-imx8-drc-wm8960.tplg
294756f6f717c52c7285f83ce8c69a1fdd38d98ed5329e65c6e7c651eb82a7ba	sof-tplg-v2.2.3/./sof-imx8-eq-fir-wm8960.tplg
4770c65802c75570884c36b81d219ad255dc06932b61978d35a49a6faade03fd	sof-tplg-v2.2.3/./sof-imx8-eq-iir-wm8960.tplg
43b4d0012a733233490fca870bb1f9a5545c01b12283c85fc31890fcff00eaa1	sof-tplg-v2.2.3/./sof-imx8-nocodec-sai.tplg
2ab12c4768a40a4ad914ee1cdcf7a1a6da5eb1c75c5452233bd02fc870686a7e	sof-tplg-v2.2.3/./sof-imx8-nocodec.tplg
abc74cc3a4a84189d3daabc90a6114e08e03efda9f0948c6dbb5895d05620c86	sof-tplg-v2.2.3/./sof-imx8-wm8960-kwd.tplg
5448689ed868c305d56143f1f9501f4fb7aeb7c7a028bcfdc0e5d7e5c82e20e5	sof-tplg-v2.2.3/./sof-imx8-wm8960-mixer.tplg
69a0fbadac536a894f25db7eca5bc0c74c3de4f759aa245f72b95b677cdf2fd5	sof-tplg-v2.2.3/./sof-imx8-wm8960.tplg
2122d91e3b55600f3b76c06f015c3e6889bef258ba5a4fb1a4841878b8cb276c	sof-tplg-v2.2.3/./sof-imx8mp-compr-wm8960-mixer.tplg
f69c2e9278f0e52e959cbc570b6794809cbd84af37da079faf0b402a92da60c0	sof-tplg-v2.2.3/./sof-imx8mp-drc-wm8960.tplg
dc0647d54a379645b63af199b73be3398faa346cc170ee6ea38bf4686946b1df	sof-tplg-v2.2.3/./sof-imx8mp-eq-fir-wm8960.tplg
969b649a53e15bbc0f049721058b7bd07bb92513dbedbabfdf2e7df16b660991	sof-tplg-v2.2.3/./sof-imx8mp-eq-iir-wm8960.tplg
57fa0a2404fab1ba176a6c561069326d2a34154fe0bb2ff9222169e12f37310a	sof-tplg-v2.2.3/./sof-imx8mp-wm8904.tplg
c01a40c9a9cf8b56907db31c9dae5203071982b2d2c685d7b15dd712037bc023	sof-tplg-v2.2.3/./sof-imx8mp-wm8960-kwd.tplg
168a8f101f9b99cc8cd68bf9df86edd25b039c7495ea53c333a40e15dce9f410	sof-tplg-v2.2.3/./sof-imx8mp-wm8960-mixer.tplg
577914556f425505ceaee7bd68a86d9d3627ec0839255b6fae17f625f051d200	sof-tplg-v2.2.3/./sof-imx8mp-wm8960.tplg
60be4727979c7a6eba528503cf677ed6e902816fbb24f5440c22cda3abc097f6	sof-tplg-v2.2.3/./sof-imx8ulp-9x9-btsco.tplg
7aa244deefdffe2b73d005778a1a88365dd9602c5c707b631da22580dc1c2de5	sof-tplg-v2.2.3/./sof-imx8ulp-btsco.tplg
711856f445a59484cd0902441102e30fa9061ba3f592b2fc9c4db08ca7315e9d	sof-tplg-v2.2.3/./sof-jsl-cs42l42-mx98360a.tplg
84db13afbca656f9f1276a8ba41470dfa216b1ee6d0e533f486c40b513fd9c48	sof-tplg-v2.2.3/./sof-jsl-da7219-mx98360a.tplg
990a4bcfe2b06896c653ffeb2acfca12b05e7af199ff803af347bfe4374de739	sof-tplg-v2.2.3/./sof-jsl-da7219.tplg
7566fafd85eacc1def6985094cfcb6cc4e7673c718ce0d823fee74d95d676654	sof-tplg-v2.2.3/./sof-jsl-es8336-dmic2ch-ssp0.tplg
414790373be1177b81240581fcf8fd7dca5c08dc291e5259cd743cbc89eb777f	sof-tplg-v2.2.3/./sof-jsl-es8336-dmic2ch-ssp1.tplg
7df26cfbae98a630b1c1ce8727fa0bef32dd0a270caa9c1f64ca53cfbe64a4d0	sof-tplg-v2.2.3/./sof-jsl-es8336-dmic2ch-ssp2.tplg
055a30fce1abf4b1dc5841867eeaef9c99f706657da3bec1417e9622c126a60c	sof-tplg-v2.2.3/./sof-jsl-es8336-dmic4ch-ssp0.tplg
11e22894f0a6895e13e1c6673f912b54d6bec96133a76428829d7ec12248d60e	sof-tplg-v2.2.3/./sof-jsl-es8336-dmic4ch-ssp1.tplg
cc95a3c44f458c2c25e2f4f0451971edb2fc5812074104b4d770efe25b94d386	sof-tplg-v2.2.3/./sof-jsl-es8336-dmic4ch-ssp2.tplg
2d4e12f69c3d347994460a570836bbeeb926c2c923b9e5e71c339d6181fc8314	sof-tplg-v2.2.3/./sof-jsl-es8336-ssp0.tplg
da01bc5c2448bc1f4fd65b11bea52f0acf7597112c5a0643bcbf881b84bf5d7f	sof-tplg-v2.2.3/./sof-jsl-es8336-ssp1.tplg
ce801a41f5b86ee4066b7cc0be67f00e771fc80a74015221342c124e89e0edab	sof-tplg-v2.2.3/./sof-jsl-es8336-ssp2.tplg
ceeca927060f8f86b0b72fc30b7fa48b21a3082816c69fd7452bd2166108596c	sof-tplg-v2.2.3/./sof-jsl-nocodec.tplg
711856f445a59484cd0902441102e30fa9061ba3f592b2fc9c4db08ca7315e9d	sof-tplg-v2.2.3/./sof-jsl-rt5682-mx98360a.tplg
79a9dafdf28d61ff2ab8f2d650cc304865146ad8c10032e3621b7bb5c2ff186c	sof-tplg-v2.2.3/./sof-jsl-rt5682-rt1015-xperi.tplg
75873e2b8dde714fa730c72f28f0312f98a142f41a5b3ba701b4b7149cf7e174	sof-tplg-v2.2.3/./sof-jsl-rt5682-rt1015.tplg
4205ae7fb8386697926c88fb4007a0aed05a54f389808e91536e63e5fe048607	sof-tplg-v2.2.3/./sof-mt8186-mt6366-da7219-max98357.tplg
4205ae7fb8386697926c88fb4007a0aed05a54f389808e91536e63e5fe048607	sof-tplg-v2.2.3/./sof-mt8186-mt6366-rt1019-rt5682s.tplg
80652f1c30d48b4b1f36a0d3a8931a2d97c6ab17280866cbb9826ad26b051bc8	sof-tplg-v2.2.3/./sof-mt8195-mt6359-max98390-rt5682-google-aec-rtnr.tplg
3981165e13517b87b5182a2788aa9827d9d9343da8e89b041d4058d279269d40	sof-tplg-v2.2.3/./sof-mt8195-mt6359-max98390-rt5682-rtnr.tplg
5f36436e8c91a033e4e2dea1208b3f3f0da1213c40bfa3ccd308a635d546746d	sof-tplg-v2.2.3/./sof-mt8195-mt6359-max98390-rt5682.tplg
6c3ddd617f6ad290269b81499ef045b7853df4694884eed7c811017373a8510f	sof-tplg-v2.2.3/./sof-mt8195-mt6359-rt1019-rt5682-dts.tplg
5f36436e8c91a033e4e2dea1208b3f3f0da1213c40bfa3ccd308a635d546746d	sof-tplg-v2.2.3/./sof-mt8195-mt6359-rt1019-rt5682.tplg
c487431b87ce26e8b4590a48baa7d044be540793d7b11ca620ab7df93919b90b	sof-tplg-v2.2.3/./sof-rn-rt5682-max98360.tplg
c487431b87ce26e8b4590a48baa7d044be540793d7b11ca620ab7df93919b90b	sof-tplg-v2.2.3/./sof-rn-rt5682-rt1019.tplg
95b0d5cc8f5a812684207ab45ea44791301cf5e71e11bc84eed03b6adb6d4f31	sof-tplg-v2.2.3/./sof-rpl-nocodec.tplg
5b174dacc47ff1d2eaf9bcc69c129f402cc547c002ed5b278e2cebe3bdaf8ec8	sof-tplg-v2.2.3/./sof-rpl-rt1316-l12-rt714-l0.tplg
ea75ad965366eecc19332101c667c04bbea0eecb6c129a11424c65608b8581be	sof-tplg-v2.2.3/./sof-rpl-rt711-4ch.tplg
7b39ecccdf96ccaddafbbbb3c9ba2b5b0e1dda024c426230ecced76c8f8da517	sof-tplg-v2.2.3/./sof-rpl-rt711-l0-rt1318-l12-rt714-l3.tplg
920976d05b8db68132b1fe0c35847c1196bf8a15b8891ef3153301bb916947b1	sof-tplg-v2.2.3/./sof-rpl-rt711-l2-rt1316-l01-rt714-l3.tplg
5ed3c404df331a182ecd851d2e0a4307c6a67f32e31156c04433372032bc4cbd	sof-tplg-v2.2.3/./sof-rpl-rt711.tplg
f0dc1f7a0dc20c326fe01e99506d51e78aef25acd8d044ad3b4b8cab043c1250	sof-tplg-v2.2.3/./sof-smart-amplifier-nocodec.tplg
7566fafd85eacc1def6985094cfcb6cc4e7673c718ce0d823fee74d95d676654	sof-tplg-v2.2.3/./sof-tgl-es8336-dmic2ch-ssp0.tplg
414790373be1177b81240581fcf8fd7dca5c08dc291e5259cd743cbc89eb777f	sof-tplg-v2.2.3/./sof-tgl-es8336-dmic2ch-ssp1.tplg
7df26cfbae98a630b1c1ce8727fa0bef32dd0a270caa9c1f64ca53cfbe64a4d0	sof-tplg-v2.2.3/./sof-tgl-es8336-dmic2ch-ssp2.tplg
055a30fce1abf4b1dc5841867eeaef9c99f706657da3bec1417e9622c126a60c	sof-tplg-v2.2.3/./sof-tgl-es8336-dmic4ch-ssp0.tplg
11e22894f0a6895e13e1c6673f912b54d6bec96133a76428829d7ec12248d60e	sof-tplg-v2.2.3/./sof-tgl-es8336-dmic4ch-ssp1.tplg
cc95a3c44f458c2c25e2f4f0451971edb2fc5812074104b4d770efe25b94d386	sof-tplg-v2.2.3/./sof-tgl-es8336-dmic4ch-ssp2.tplg
2d4e12f69c3d347994460a570836bbeeb926c2c923b9e5e71c339d6181fc8314	sof-tplg-v2.2.3/./sof-tgl-es8336-ssp0.tplg
da01bc5c2448bc1f4fd65b11bea52f0acf7597112c5a0643bcbf881b84bf5d7f	sof-tplg-v2.2.3/./sof-tgl-es8336-ssp1.tplg
ce801a41f5b86ee4066b7cc0be67f00e771fc80a74015221342c124e89e0edab	sof-tplg-v2.2.3/./sof-tgl-es8336-ssp2.tplg
7566fafd85eacc1def6985094cfcb6cc4e7673c718ce0d823fee74d95d676654	sof-tplg-v2.2.3/./sof-tgl-es8336.tplg
ceeca927060f8f86b0b72fc30b7fa48b21a3082816c69fd7452bd2166108596c	sof-tplg-v2.2.3/./sof-tgl-h-nocodec.tplg
8bdd0289e0ebe450eec4ee914fe2ae0c52eee189f778e42c75ecca63cf409962	sof-tplg-v2.2.3/./sof-tgl-max98357a-rt5682-pdm1-drceq.tplg
28f809e5c4f69fad90027e7112214a2d3dc05e81251376c36c9125f4883d8e1a	sof-tplg-v2.2.3/./sof-tgl-max98357a-rt5682-pdm1-google-aec.tplg
629aea84483dfeaa9e8a11dbeb8574522adf374fa64d77531f05831e4ab0d2dc	sof-tplg-v2.2.3/./sof-tgl-max98357a-rt5682-pdm1.tplg
b640793702dd854a890aed2266582a12fc905c9f562531c486269d4e8ef5bd37	sof-tplg-v2.2.3/./sof-tgl-max98357a-rt5682-rtnr.tplg
2922e55809b25110fdbdac415e39f20f40c31b6c6aa5238f1d9933f881f1d9fe	sof-tplg-v2.2.3/./sof-tgl-max98357a-rt5682.tplg
77dab0920fcb9f427cdf7d3dcb35e1a33a1ecf673ce651d502ecc74c02abf84e	sof-tplg-v2.2.3/./sof-tgl-max98373-rt5682-igonr.tplg
2faefeab9859e2b949005470abc3f75f9d35eb394426b1cbff83db6ec5450c2b	sof-tplg-v2.2.3/./sof-tgl-max98373-rt5682-xperi.tplg
21fd41bb1700ed3a71ec5de6c6bb8c9cc9afe99dd361030d6ca68c993b9e27c8	sof-tplg-v2.2.3/./sof-tgl-max98373-rt5682.tplg
7972f5c742c38a13af14f91a9ffda89eefc6cd505da91296643b83f98c6eac62	sof-tplg-v2.2.3/./sof-tgl-nocodec-ci.tplg
6da98f9133266b2481c7cfe26cd4b80b0834b9de60e45a8b131c137f065c1231	sof-tplg-v2.2.3/./sof-tgl-nocodec.tplg
d3bfc158efa3a1baa1280918ba85ca0caacf95b241addedff6b8d67622e95f7a	sof-tplg-v2.2.3/./sof-tgl-rt1011-rt5682.tplg
5a9833cd3757dcd0900a87aa7739617a69ae97a00dd56435489cc2f6ccddefb6	sof-tplg-v2.2.3/./sof-tgl-rt5682-ssp0-max98373-ssp2-xperi.tplg
6580801b5f76cb6d3c082bc900c2daa112831754a441126e8ecab066decc82e5	sof-tplg-v2.2.3/./sof-tgl-rt5682-ssp0-max98373-ssp2.tplg
4501a307b2048b316217484f2b958b89f8fc8f1a36d788ee210ac0eff3c08179	sof-tplg-v2.2.3/./sof-tgl-rt711-4ch.tplg
81811e4bd8630dacc73a6da8201fd95c48800be0a1a1aff0d9d8d90ab3c38115	sof-tplg-v2.2.3/./sof-tgl-rt711-l0-rt1316-l1-mono-rt714-l3.tplg
65349cb96b18a65645764b819c29c1ad1674c1205e539fcbc478a6e6eae46ba6	sof-tplg-v2.2.3/./sof-tgl-rt711-rt1308-2ch.tplg
5b9627e939f6d7d064bbd098725e9be02c2719050b0b3fea4679a8e768b0c5f8	sof-tplg-v2.2.3/./sof-tgl-rt711-rt1308-4ch.tplg
81811e4bd8630dacc73a6da8201fd95c48800be0a1a1aff0d9d8d90ab3c38115	sof-tplg-v2.2.3/./sof-tgl-rt711-rt1308-mono-rt715.tplg
7b39ecccdf96ccaddafbbbb3c9ba2b5b0e1dda024c426230ecced76c8f8da517	sof-tplg-v2.2.3/./sof-tgl-rt711-rt1308-rt715.tplg
7b39ecccdf96ccaddafbbbb3c9ba2b5b0e1dda024c426230ecced76c8f8da517	sof-tplg-v2.2.3/./sof-tgl-rt711-rt1316-rt714.tplg
5f7725c0fe313f25c8bda5e39c5e259a3b673996e8dc1a24ae6c76f19fb7287a	sof-tplg-v2.2.3/./sof-tgl-rt715-rt711-rt1308-mono.tplg
1d4c74fba1e11236e702aaf57d45bac938829f3869449e2291d2a7665009bc47	sof-tplg-v2.2.3/./sof-tgl-sdw-max98373-rt5682.tplg
450766736ab9216c8ccfc0e997977ad38308b54982636d81e4f3e5b888a36192	sof-tplg-v2.2.3/./sof-whl-demux-rt5682.tplg
e6a465bc93f5bcc9e54dd4ee7c69681d2a0118f6cf4a4c2b67c5ff0f35f5db9f	sof-tplg-v2.2.3/./sof-whl-rt5682-kwd.tplg
c41b0b47a7d67e202aa5ef1ae37aa0533256e25277de05635191dbf78d89f0bd	sof-tplg-v2.2.3/./sof-whl-rt5682.tplg
054c7abedf89b20adf195faa14ca31d8c964e360fb5d5f8d9ee8e4596227c330	sof-v2.2.3/./community/sof-apl.ri
d7fd6388946fffe83ac10a5449e58dd80cb21598149e4ef903cf26b3ad40f3e9	sof-v2.2.3/./community/sof-cnl.ri
22cc48fe1d6e78ec6c1f7d0fd92ed2362268f83052a8326443e782a5ce66d813	sof-v2.2.3/./community/sof-icl.ri
dffa244bd450225fc953422cb63e1a331f030fcd54022baabde6399457408926	sof-v2.2.3/./community/sof-jsl.ri
ca573c487f91d4e6fb44f881b1c9241531655d4b78ee2d7eea64ff62da128d5c	sof-v2.2.3/./community/sof-tgl-h.ri
e3489dcb277e87eee8bc091ab7d51163a63c85541c22522775122b54263769f3	sof-v2.2.3/./community/sof-tgl.ri
8433390e4abfe40b251ff3dec41604e7b817501d1097d51aa2f51c11444d3bf0	sof-v2.2.3/./intel-signed/sof-adl-n.ri
1bddc1c6e26de3ae37f914305a0d619fa51e1b2fa3ebc5a64550b3464cf13188	sof-v2.2.3/./intel-signed/sof-adl-s.ri
294e5a51b1d3fc4ceda57780927c2a2ec95bb5d23477f879a9fb648c6c01cb30	sof-v2.2.3/./intel-signed/sof-adl.ri
d63499833bb20352e63907e2409f8246df278a15cf7c73a24aeefaff19fb1a43	sof-v2.2.3/./intel-signed/sof-apl.ri
c5119cfca9c4bdf5ab87a87af08fb8fb2bf92767e0f070ea4eb52a877f10359e	sof-v2.2.3/./intel-signed/sof-cnl.ri
2f5d777ace33497bf0cd1ed097318eec08ba1c1aaef09e9354a8cdf7279062f2	sof-v2.2.3/./intel-signed/sof-ehl.ri
ba5b9271d8266a09ceef17582bc3de7d690d788e87a4df690055ce4eaf37b2ed	sof-v2.2.3/./intel-signed/sof-icl.ri
0a7d63731f1bf8027a4618a8c8d55e1c3cbd87780f1b1e2d411b4ca9c0ad55a9	sof-v2.2.3/./intel-signed/sof-jsl.ri
b9be9b8c542cb042b777438410aa169ed9b39bdc30c70edbfec41cd23ee80528	sof-v2.2.3/./intel-signed/sof-tgl-h.ri
97c8d8dea6048329bfbb1dbbd56609934d388b7e3a9acffe20df0b7daf14d7d3	sof-v2.2.3/./intel-signed/sof-tgl.ri
323525526e0ffb84f73076d57214a8497bf49b813b223c042e40957c3c2dae77	sof-v2.2.3/./sof-apl.ldc
cf570425ca18fa5fba7ab2f94b59ffd0f210839ac57cf1e4de4201bef01bd3d8	sof-v2.2.3/./sof-bdw.ldc
635cd33b0f761c471915fde85050f6c17cc714c3345924e09787c9da6c5d9775	sof-v2.2.3/./sof-bdw.ri
f7e08c8b42a945c5e7e3bb0a0041a314f34ccecd5aa803ec95d983f97a68834e	sof-v2.2.3/./sof-byt.ldc
48b632b245ddb52f121b78b3fea4fcd232bb6185f869e7d17deb91aee71bcb12	sof-v2.2.3/./sof-byt.ri
f7e08c8b42a945c5e7e3bb0a0041a314f34ccecd5aa803ec95d983f97a68834e	sof-v2.2.3/./sof-cht.ldc
dfd5707cb430691d45b45f96abc8baa4bc870a3ea73940e62e2e9fe3adb1f549	sof-v2.2.3/./sof-cht.ri
0141c9b987806c33f51b5ac957a81368e004d7d48ca3965eb1ecf28ae3ee513e	sof-v2.2.3/./sof-cnl.ldc
237f75e82249e0684a68ca7dc50b2324afdb0a0569a58bdb08183da678a1a6bb	sof-v2.2.3/./sof-icl.ldc
ef2e216f38fb6826996498047ee6434fe88778e14c3e8f909524a7d96d024dba	sof-v2.2.3/./sof-jsl.ldc
77a592bde9251d10c7d929b8bf2245d6deae75296dc039c62bdc7c881f92dadb	sof-v2.2.3/./sof-tgl-h.ldc
77a592bde9251d10c7d929b8bf2245d6deae75296dc039c62bdc7c881f92dadb	sof-v2.2.3/./sof-tgl.ldc
78972840970d1e4f52e2fd57d4e056124fd680861b83eeca76eeb236c972aab0	tools-v2.2.3/./sof-ctl
b38f1233f6ad61fac64d3b80144d5e6c706639891801e2fe0f79f6c57b8b6584	tools-v2.2.3/./sof-logger
e0ea64d068b2e95ac8c14fbc2f5f0479e97c9938a9a56350f4429511281ddc91	tools-v2.2.3/./sof-probes
